{
  "title": "Encoding",
  "description": "Write a function that takes a string as a parameter and returns that string encoded using the following rule:\nEach letter will be encoded using its corresponding numbered position in the alphabet. Symbols, numbers and spaces may appear in the input, they will remain the same in the output.",
  "level": "medium",
  "methods": [
    {
      "language": "java",
      "signature": "public class ProblemSolution {\n  public String encode(String s){\n    //TODO: write here the solution\n  }\n}"
    },
    {
      "language": "python",
      "signature": "def encode(arg)"
    }
  ]
}